{
  "vpc-provider:account=431817564189:filter.tag:Name=eks-vkornev-01-vpc:filter.vpc-id=vpc-0fa48d7eb3984779e:region=us-east-1:returnAsymmetricSubnets=true": {
    "vpcId": "vpc-0fa48d7eb3984779e",
    "vpcCidrBlock": "10.33.0.0/16",
    "availabilityZones": [],
    "subnetGroups": [
      {
        "name": "Public",
        "type": "Public",
        "subnets": [
          {
            "subnetId": "subnet-010ee7af2442dc68e",
            "cidr": "10.33.96.0/19",
            "availabilityZone": "us-east-1a",
            "routeTableId": "rtb-05d90e81d8cbf91b1"
          },
          {
            "subnetId": "subnet-0f5111ce704c6b455",
            "cidr": "10.33.128.0/19",
            "availabilityZone": "us-east-1b",
            "routeTableId": "rtb-05d90e81d8cbf91b1"
          },
          {
            "subnetId": "subnet-0b392eb00a1d250ad",
            "cidr": "10.33.160.0/19",
            "availabilityZone": "us-east-1d",
            "routeTableId": "rtb-05d90e81d8cbf91b1"
          }
        ]
      },
      {
        "name": "Private",
        "type": "Private",
        "subnets": [
          {
            "subnetId": "subnet-041d30f5f0a67c14a",
            "cidr": "10.33.0.0/19",
            "availabilityZone": "us-east-1a",
            "routeTableId": "rtb-012441248173c6aa0"
          },
          {
            "subnetId": "subnet-0cade2d37aeadcb42",
            "cidr": "10.33.32.0/19",
            "availabilityZone": "us-east-1b",
            "routeTableId": "rtb-012441248173c6aa0"
          },
          {
            "subnetId": "subnet-057ea04561aec4e44",
            "cidr": "10.33.64.0/19",
            "availabilityZone": "us-east-1d",
            "routeTableId": "rtb-012441248173c6aa0"
          }
        ]
      }
    ]
  },
  "vpc-provider:account=431817564189:filter.vpc-id=vpc-0fa48d7eb3984779e:region=us-east-1:returnAsymmetricSubnets=true": {
    "vpcId": "vpc-0fa48d7eb3984779e",
    "vpcCidrBlock": "10.33.0.0/16",
    "availabilityZones": [],
    "subnetGroups": [
      {
        "name": "Public",
        "type": "Public",
        "subnets": [
          {
            "subnetId": "subnet-010ee7af2442dc68e",
            "cidr": "10.33.96.0/19",
            "availabilityZone": "us-east-1a",
            "routeTableId": "rtb-05d90e81d8cbf91b1"
          },
          {
            "subnetId": "subnet-0f5111ce704c6b455",
            "cidr": "10.33.128.0/19",
            "availabilityZone": "us-east-1b",
            "routeTableId": "rtb-05d90e81d8cbf91b1"
          },
          {
            "subnetId": "subnet-0b392eb00a1d250ad",
            "cidr": "10.33.160.0/19",
            "availabilityZone": "us-east-1d",
            "routeTableId": "rtb-05d90e81d8cbf91b1"
          }
        ]
      },
      {
        "name": "Private",
        "type": "Private",
        "subnets": [
          {
            "subnetId": "subnet-041d30f5f0a67c14a",
            "cidr": "10.33.0.0/19",
            "availabilityZone": "us-east-1a",
            "routeTableId": "rtb-012441248173c6aa0"
          },
          {
            "subnetId": "subnet-0cade2d37aeadcb42",
            "cidr": "10.33.32.0/19",
            "availabilityZone": "us-east-1b",
            "routeTableId": "rtb-012441248173c6aa0"
          },
          {
            "subnetId": "subnet-057ea04561aec4e44",
            "cidr": "10.33.64.0/19",
            "availabilityZone": "us-east-1d",
            "routeTableId": "rtb-012441248173c6aa0"
          }
        ]
      }
    ]
  }
}
